C:\Users\yqu\OneDrive - Syddansk Universitet\Documents\NetBeansProjects\controleum-2-RIG\dk.sdu.mmmi.controleum.control.generic.issue\src\main\java\dk\sdu\mmmi\controleum\generic\issue\generators\AbstractValueGeneratorFactory.java
C:\Users\yqu\OneDrive - Syddansk Universitet\Documents\NetBeansProjects\controleum-2-RIG\dk.sdu.mmmi.controleum.control.generic.issue\src\main\java\dk\sdu\mmmi\controleum\generic\issue\generators\FloatValueGeneratorFactory.java
C:\Users\yqu\OneDrive - Syddansk Universitet\Documents\NetBeansProjects\controleum-2-RIG\dk.sdu.mmmi.controleum.control.generic.issue\src\main\java\dk\sdu\mmmi\controleum\generic\issue\generators\IntegerValueGenerator.java
C:\Users\yqu\OneDrive - Syddansk Universitet\Documents\NetBeansProjects\controleum-2-RIG\dk.sdu.mmmi.controleum.control.generic.issue\src\main\java\dk\sdu\mmmi\controleum\generic\issue\generators\FloatValueGenerator.java
C:\Users\yqu\OneDrive - Syddansk Universitet\Documents\NetBeansProjects\controleum-2-RIG\dk.sdu.mmmi.controleum.control.generic.issue\src\main\java\dk\sdu\mmmi\controleum\generic\issue\generators\IntegerValueGeneratorFactory.java
C:\Users\yqu\OneDrive - Syddansk Universitet\Documents\NetBeansProjects\controleum-2-RIG\dk.sdu.mmmi.controleum.control.generic.issue\src\main\java\dk\sdu\mmmi\controleum\generic\issue\generators\DoubleValueGeneratorFactory.java
C:\Users\yqu\OneDrive - Syddansk Universitet\Documents\NetBeansProjects\controleum-2-RIG\dk.sdu.mmmi.controleum.control.generic.issue\src\main\java\dk\sdu\mmmi\controleum\generic\issue\generators\BooleanValueGeneratorFactory.java
C:\Users\yqu\OneDrive - Syddansk Universitet\Documents\NetBeansProjects\controleum-2-RIG\dk.sdu.mmmi.controleum.control.generic.issue\src\main\java\dk\sdu\mmmi\controleum\generic\issue\generators\DoubleValueGenerator.java
C:\Users\yqu\OneDrive - Syddansk Universitet\Documents\NetBeansProjects\controleum-2-RIG\dk.sdu.mmmi.controleum.control.generic.issue\src\main\java\dk\sdu\mmmi\controleum\generic\issue\GenericIssueImpl.java
C:\Users\yqu\OneDrive - Syddansk Universitet\Documents\NetBeansProjects\controleum-2-RIG\dk.sdu.mmmi.controleum.control.generic.issue\src\main\java\dk\sdu\mmmi\controleum\generic\issue\generators\BooleanValueGenerator.java
C:\Users\yqu\OneDrive - Syddansk Universitet\Documents\NetBeansProjects\controleum-2-RIG\dk.sdu.mmmi.controleum.control.generic.issue\src\main\java\dk\sdu\mmmi\controleum\generic\issue\generators\IValueGenerator.java
