C:\Users\yqu\OneDrive - Syddansk Universitet\Documents\NetBeansProjects\controleum-2-RIG\com.decouplink\src\main\java\com\decouplink\core\StatisticsManager.java
C:\Users\yqu\OneDrive - Syddansk Universitet\Documents\NetBeansProjects\controleum-2-RIG\com.decouplink\src\main\java\com\decouplink\DisposableRemover.java
C:\Users\yqu\OneDrive - Syddansk Universitet\Documents\NetBeansProjects\controleum-2-RIG\com.decouplink\src\main\java\com\decouplink\Shareable.java
C:\Users\yqu\OneDrive - Syddansk Universitet\Documents\NetBeansProjects\controleum-2-RIG\com.decouplink\src\main\java\com\decouplink\AbstractLinkShare.java
C:\Users\yqu\OneDrive - Syddansk Universitet\Documents\NetBeansProjects\controleum-2-RIG\com.decouplink\src\main\java\com\decouplink\core\AssociationMap.java
C:\Users\yqu\OneDrive - Syddansk Universitet\Documents\NetBeansProjects\controleum-2-RIG\com.decouplink\src\main\java\com\decouplink\ServiceUnavailableException.java
C:\Users\yqu\OneDrive - Syddansk Universitet\Documents\NetBeansProjects\controleum-2-RIG\com.decouplink\src\main\java\com\decouplink\Disposable.java
C:\Users\yqu\OneDrive - Syddansk Universitet\Documents\NetBeansProjects\controleum-2-RIG\com.decouplink\src\main\java\com\decouplink\core\ContextImpl.java
C:\Users\yqu\OneDrive - Syddansk Universitet\Documents\NetBeansProjects\controleum-2-RIG\com.decouplink\src\main\java\com\decouplink\core\DynamicFaultContainer.java
C:\Users\yqu\OneDrive - Syddansk Universitet\Documents\NetBeansProjects\controleum-2-RIG\com.decouplink\src\main\java\com\decouplink\Link.java
C:\Users\yqu\OneDrive - Syddansk Universitet\Documents\NetBeansProjects\controleum-2-RIG\com.decouplink\src\main\java\com\decouplink\AbstractLink.java
C:\Users\yqu\OneDrive - Syddansk Universitet\Documents\NetBeansProjects\controleum-2-RIG\com.decouplink\src\main\java\com\decouplink\Context.java
C:\Users\yqu\OneDrive - Syddansk Universitet\Documents\NetBeansProjects\controleum-2-RIG\com.decouplink\src\main\java\com\decouplink\Utilities.java
C:\Users\yqu\OneDrive - Syddansk Universitet\Documents\NetBeansProjects\controleum-2-RIG\com.decouplink\src\main\java\com\decouplink\core\MutableLookup.java
C:\Users\yqu\OneDrive - Syddansk Universitet\Documents\NetBeansProjects\controleum-2-RIG\com.decouplink\src\main\java\com\decouplink\FaultTolerant.java
C:\Users\yqu\OneDrive - Syddansk Universitet\Documents\NetBeansProjects\controleum-2-RIG\com.decouplink\src\main\java\com\decouplink\DisposableList.java
