dk\sdu\mmmi\controleum\impl\moea\clusteredparetoselection\ConcernClusterPopulation$ScoreSolution.class
dk\sdu\mmmi\controleum\impl\moea\clusteredparetoselection\ClusteredParetoOptimalSelector.class
dk\sdu\mmmi\controleum\impl\moea\clusteredparetoselection\ConcernClusterPopulation.class
dk\sdu\mmmi\controleum\impl\moea\clusteredparetoselection\ClusterSelection.class
dk\sdu\mmmi\controleum\impl\moea\clusteredparetoselection\Cluster.class
dk\sdu\mmmi\controleum\impl\moea\clusteredparetoselection\DistancePair.class
