dk\sdu\mmmi\controleum\impl\core\ControleumContextManagerImpl.class
META-INF\services\dk.sdu.mmmi.controleum.api.core.ControleumContextManager
dk\sdu\mmmi\controleum\impl\core\ControleumLoader.class
dk\sdu\mmmi\controleum\impl\core\Session.class
dk\sdu\mmmi\controleum\impl\core\ControleumContextImpl.class
