dk\sdu\mmmi\controleum\impl\db\schema\SchemaBuilder.class
dk\sdu\mmmi\controleum\impl\db\jdbc\GenericContextDataAccess.class
dk\sdu\mmmi\controleum\impl\db\jdbc\GenericContextDataAccess$4.class
dk\sdu\mmmi\controleum\impl\db\util\JDBC.class
dk\sdu\mmmi\controleum\impl\db\schema\Schema.class
dk\sdu\mmmi\controleum\impl\db\jdbc\DerbyDatabaseProvider$1.class
dk\sdu\mmmi\controleum\impl\db\jdbc\DerbyDatabaseDataAccess.class
META-INF\services\dk.sdu.mmmi.controleum.api.db.DatabaseProvider
dk\sdu\mmmi\controleum\impl\db\jdbc\GenericContextDataAccess$1.class
dk\sdu\mmmi\controleum\impl\db\schema\SchemaBuilder$Version.class
dk\sdu\mmmi\controleum\impl\db\jdbc\GenericContextDataAccess$2.class
dk\sdu\mmmi\controleum\impl\db\jdbc\DerbyDatabaseProvider.class
dk\sdu\mmmi\controleum\impl\db\jdbc\GenericContextDataAccess$3.class
dk\sdu\mmmi\controleum\impl\db\jdbc\DerbyDatabaseProvider$DerbyLink.class
