C:\Users\yqu\OneDrive - Syddansk Universitet\Documents\NetBeansProjects\controleum-2-RIG\dk.sdu.mmmi.controleum.impl.moea.comperator\src\main\java\dk\sdu\mmmi\controleum\impl\moea\comperator\SortedFitnessComperator.java
C:\Users\yqu\OneDrive - Syddansk Universitet\Documents\NetBeansProjects\controleum-2-RIG\dk.sdu.mmmi.controleum.impl.moea.comperator\src\main\java\dk\sdu\mmmi\controleum\impl\moea\comperator\PrioritizedNormalizedFitnessComparator.java
C:\Users\yqu\OneDrive - Syddansk Universitet\Documents\NetBeansProjects\controleum-2-RIG\dk.sdu.mmmi.controleum.impl.moea.comperator\src\main\java\dk\sdu\mmmi\controleum\impl\moea\comperator\NormalizedVectorComparator.java
C:\Users\yqu\OneDrive - Syddansk Universitet\Documents\NetBeansProjects\controleum-2-RIG\dk.sdu.mmmi.controleum.impl.moea.comperator\src\main\java\dk\sdu\mmmi\controleum\impl\moea\comperator\ParetoFitnessComparatorNoEquals.java
C:\Users\yqu\OneDrive - Syddansk Universitet\Documents\NetBeansProjects\controleum-2-RIG\dk.sdu.mmmi.controleum.impl.moea.comperator\src\main\java\dk\sdu\mmmi\controleum\impl\moea\comperator\ParetoFitnessSortComparator2.java
C:\Users\yqu\OneDrive - Syddansk Universitet\Documents\NetBeansProjects\controleum-2-RIG\dk.sdu.mmmi.controleum.impl.moea.comperator\src\main\java\dk\sdu\mmmi\controleum\impl\moea\comperator\NormalizedVarianceComparator.java
C:\Users\yqu\OneDrive - Syddansk Universitet\Documents\NetBeansProjects\controleum-2-RIG\dk.sdu.mmmi.controleum.impl.moea.comperator\src\main\java\dk\sdu\mmmi\controleum\impl\moea\comperator\PrioritizedFitnessComparator.java
C:\Users\yqu\OneDrive - Syddansk Universitet\Documents\NetBeansProjects\controleum-2-RIG\dk.sdu.mmmi.controleum.impl.moea.comperator\src\main\java\dk\sdu\mmmi\controleum\impl\moea\comperator\ParetoFitnessComparator.java
