dk\sdu\mmmi\controleum\api\moea\SearchStatistics.class
dk\sdu\mmmi\controleum\api\moea\SearchObserver.class
dk\sdu\mmmi\controleum\api\moea\Concern.class
dk\sdu\mmmi\controleum\api\moea\Input.class
dk\sdu\mmmi\controleum\api\moea\ConcernListener.class
dk\sdu\mmmi\controleum\api\moea\utils\BitSetUtil.class
dk\sdu\mmmi\controleum\api\moea\Element.class
dk\sdu\mmmi\controleum\api\moea\Output.class
dk\sdu\mmmi\controleum\api\moea\BinaryOutput.class
dk\sdu\mmmi\controleum\api\moea\IssueObserver.class
dk\sdu\mmmi\controleum\api\moea\SearchConfiguration.class
dk\sdu\mmmi\controleum\api\moea\Value.class
dk\sdu\mmmi\controleum\api\moea\SearchConfiguration$1.class
dk\sdu\mmmi\controleum\api\moea\Issue.class
dk\sdu\mmmi\controleum\api\moea\SearchConfiguration$Builder.class
dk\sdu\mmmi\controleum\api\moea\Value$Listener.class
dk\sdu\mmmi\controleum\api\moea\Solution.class
dk\sdu\mmmi\controleum\api\moea\Solver.class
dk\sdu\mmmi\controleum\api\moea\Commitable.class
dk\sdu\mmmi\controleum\api\moea\Value$Type.class
