C:\Users\yqu\OneDrive - Syddansk Universitet\Documents\NetBeansProjects\controleum-2-RIG\dk.sdu.mmmi.controleum.api.control.generic\src\main\java\dk\sdu\mmmi\controleum\api\control\generic\issue\GenericIssueConfig.java
C:\Users\yqu\OneDrive - Syddansk Universitet\Documents\NetBeansProjects\controleum-2-RIG\dk.sdu.mmmi.controleum.api.control.generic\src\main\java\dk\sdu\mmmi\controleum\api\control\generic\issue\GenericIssueConfigEventListener.java
C:\Users\yqu\OneDrive - Syddansk Universitet\Documents\NetBeansProjects\controleum-2-RIG\dk.sdu.mmmi.controleum.api.control.generic\src\main\java\dk\sdu\mmmi\controleum\api\control\generic\BasicConfig.java
C:\Users\yqu\OneDrive - Syddansk Universitet\Documents\NetBeansProjects\controleum-2-RIG\dk.sdu.mmmi.controleum.api.control.generic\src\main\java\dk\sdu\mmmi\controleum\api\control\generic\issue\Boundary.java
C:\Users\yqu\OneDrive - Syddansk Universitet\Documents\NetBeansProjects\controleum-2-RIG\dk.sdu.mmmi.controleum.api.control.generic\src\main\java\dk\sdu\mmmi\controleum\api\control\generic\BasicConfigManager.java
C:\Users\yqu\OneDrive - Syddansk Universitet\Documents\NetBeansProjects\controleum-2-RIG\dk.sdu.mmmi.controleum.api.control.generic\src\main\java\dk\sdu\mmmi\controleum\api\control\generic\issue\GenericIssueConfigManager.java
C:\Users\yqu\OneDrive - Syddansk Universitet\Documents\NetBeansProjects\controleum-2-RIG\dk.sdu.mmmi.controleum.api.control.generic\src\main\java\dk\sdu\mmmi\controleum\api\control\generic\issue\GenericIssueValueListener.java
C:\Users\yqu\OneDrive - Syddansk Universitet\Documents\NetBeansProjects\controleum-2-RIG\dk.sdu.mmmi.controleum.api.control.generic\src\main\java\dk\sdu\mmmi\controleum\api\control\generic\BasicListener.java
C:\Users\yqu\OneDrive - Syddansk Universitet\Documents\NetBeansProjects\controleum-2-RIG\dk.sdu.mmmi.controleum.api.control.generic\src\main\java\dk\sdu\mmmi\controleum\api\control\generic\ControleumValueList.java
C:\Users\yqu\OneDrive - Syddansk Universitet\Documents\NetBeansProjects\controleum-2-RIG\dk.sdu.mmmi.controleum.api.control.generic\src\main\java\dk\sdu\mmmi\controleum\api\control\generic\BasicEvent.java
C:\Users\yqu\OneDrive - Syddansk Universitet\Documents\NetBeansProjects\controleum-2-RIG\dk.sdu.mmmi.controleum.api.control.generic\src\main\java\dk\sdu\mmmi\controleum\api\control\generic\issue\GenericIssueConfigEvent.java
C:\Users\yqu\OneDrive - Syddansk Universitet\Documents\NetBeansProjects\controleum-2-RIG\dk.sdu.mmmi.controleum.api.control.generic\src\main\java\dk\sdu\mmmi\controleum\api\control\generic\ValueGeneratorTypes.java
C:\Users\yqu\OneDrive - Syddansk Universitet\Documents\NetBeansProjects\controleum-2-RIG\dk.sdu.mmmi.controleum.api.control.generic\src\main\java\dk\sdu\mmmi\controleum\api\control\generic\issue\GenericIssue.java
C:\Users\yqu\OneDrive - Syddansk Universitet\Documents\NetBeansProjects\controleum-2-RIG\dk.sdu.mmmi.controleum.api.control.generic\src\main\java\dk\sdu\mmmi\controleum\api\control\generic\ValueEvent.java
