C:\Users\yqu\OneDrive - Syddansk Universitet\Documents\NetBeansProjects\controleum-2-RIG\dk.sdu.mmmi.controleum.impl.moea.solutionselectors\src\main\java\dk\sdu\mmmi\controleum\impl\moea\solutionselectors\ApproximatedFairnessSelectorI.java
C:\Users\yqu\OneDrive - Syddansk Universitet\Documents\NetBeansProjects\controleum-2-RIG\dk.sdu.mmmi.controleum.impl.moea.solutionselectors\src\main\java\dk\sdu\mmmi\controleum\impl\moea\solutionselectors\aiu\LexiMinSelector.java
C:\Users\yqu\OneDrive - Syddansk Universitet\Documents\NetBeansProjects\controleum-2-RIG\dk.sdu.mmmi.controleum.impl.moea.solutionselectors\src\main\java\dk\sdu\mmmi\controleum\impl\moea\solutionselectors\FairVectorSelectorI.java
C:\Users\yqu\OneDrive - Syddansk Universitet\Documents\NetBeansProjects\controleum-2-RIG\dk.sdu.mmmi.controleum.impl.moea.solutionselectors\src\main\java\dk\sdu\mmmi\controleum\impl\moea\solutionselectors\ApproxFairNoCompareSelectorI.java
C:\Users\yqu\OneDrive - Syddansk Universitet\Documents\NetBeansProjects\controleum-2-RIG\dk.sdu.mmmi.controleum.impl.moea.solutionselectors\src\main\java\dk\sdu\mmmi\controleum\impl\moea\solutionselectors\aiu\ApproxFairnessSelector.java
C:\Users\yqu\OneDrive - Syddansk Universitet\Documents\NetBeansProjects\controleum-2-RIG\dk.sdu.mmmi.controleum.impl.moea.solutionselectors\src\main\java\dk\sdu\mmmi\controleum\impl\moea\solutionselectors\aiu\EntropySelector.java
C:\Users\yqu\OneDrive - Syddansk Universitet\Documents\NetBeansProjects\controleum-2-RIG\dk.sdu.mmmi.controleum.impl.moea.solutionselectors\src\main\java\dk\sdu\mmmi\controleum\impl\moea\solutionselectors\aiu\EgalitarianSelector.java
C:\Users\yqu\OneDrive - Syddansk Universitet\Documents\NetBeansProjects\controleum-2-RIG\dk.sdu.mmmi.controleum.impl.moea.solutionselectors\src\main\java\dk\sdu\mmmi\controleum\impl\moea\solutionselectors\aiu\ElitistSelector.java
C:\Users\yqu\OneDrive - Syddansk Universitet\Documents\NetBeansProjects\controleum-2-RIG\dk.sdu.mmmi.controleum.impl.moea.solutionselectors\src\main\java\dk\sdu\mmmi\controleum\impl\moea\solutionselectors\aiu\QuantitativeFairnessSelector.java
C:\Users\yqu\OneDrive - Syddansk Universitet\Documents\NetBeansProjects\controleum-2-RIG\dk.sdu.mmmi.controleum.impl.moea.solutionselectors\src\main\java\dk\sdu\mmmi\controleum\impl\moea\solutionselectors\ApproxFairCrossLayerSelectorI.java
C:\Users\yqu\OneDrive - Syddansk Universitet\Documents\NetBeansProjects\controleum-2-RIG\dk.sdu.mmmi.controleum.impl.moea.solutionselectors\src\main\java\dk\sdu\mmmi\controleum\impl\moea\solutionselectors\FairDifferenceVectorSelectorI.java
C:\Users\yqu\OneDrive - Syddansk Universitet\Documents\NetBeansProjects\controleum-2-RIG\dk.sdu.mmmi.controleum.impl.moea.solutionselectors\src\main\java\dk\sdu\mmmi\controleum\impl\moea\solutionselectors\MaximizeSocialWelfareSelector.java
C:\Users\yqu\OneDrive - Syddansk Universitet\Documents\NetBeansProjects\controleum-2-RIG\dk.sdu.mmmi.controleum.impl.moea.solutionselectors\src\main\java\dk\sdu\mmmi\controleum\impl\moea\solutionselectors\aiu\SocialSelector.java
C:\Users\yqu\OneDrive - Syddansk Universitet\Documents\NetBeansProjects\controleum-2-RIG\dk.sdu.mmmi.controleum.impl.moea.solutionselectors\src\main\java\dk\sdu\mmmi\controleum\impl\moea\solutionselectors\FairVectorDifferenceSelectorI.java
C:\Users\yqu\OneDrive - Syddansk Universitet\Documents\NetBeansProjects\controleum-2-RIG\dk.sdu.mmmi.controleum.impl.moea.solutionselectors\src\main\java\dk\sdu\mmmi\controleum\impl\moea\solutionselectors\aiu\MedianRankSelector.java
C:\Users\yqu\OneDrive - Syddansk Universitet\Documents\NetBeansProjects\controleum-2-RIG\dk.sdu.mmmi.controleum.impl.moea.solutionselectors\src\main\java\dk\sdu\mmmi\controleum\impl\moea\solutionselectors\aiu\NashProductSelector.java
C:\Users\yqu\OneDrive - Syddansk Universitet\Documents\NetBeansProjects\controleum-2-RIG\dk.sdu.mmmi.controleum.impl.moea.solutionselectors\src\main\java\dk\sdu\mmmi\controleum\impl\moea\solutionselectors\aiu\FairnessAnalysisSelector.java
C:\Users\yqu\OneDrive - Syddansk Universitet\Documents\NetBeansProjects\controleum-2-RIG\dk.sdu.mmmi.controleum.impl.moea.solutionselectors\src\main\java\dk\sdu\mmmi\controleum\impl\moea\solutionselectors\FairDifferenceSelectorI.java
C:\Users\yqu\OneDrive - Syddansk Universitet\Documents\NetBeansProjects\controleum-2-RIG\dk.sdu.mmmi.controleum.impl.moea.solutionselectors\src\main\java\dk\sdu\mmmi\controleum\impl\moea\solutionselectors\aiu\GroupScorer.java
